7000 1 42.831,92.871 0.985,33.027,91.106 -40.492,58.024,91.552 -7.517,40.73,92.907 -10.49,60.826,87.372 0.759,53.099,56.993
10000 1 42.831,92.871 -3.333,58.024,91.552 -5.816,32.983,90.278 -1.629,38.713,92.901 -13.601,60.822,87.495 0.959,53.774,56.965
20000 1 45.443,92.98 -6.998,60.813,86.963 -2.227,38.146,57.07 -7.008,37.694,93.003 -37.662,56.035,56.828 -8.744,58.694,91.772 0.433,29.109,87.952
22000 1 45.443,92.98 -9.199,60.79,88.366 -41.208,37.334,57.076 -5.587,37.694,93.003 -37.672,56.035,56.828 -3.652,29.109,87.952 -9.74,60.433,90.163
24000 1 45.443,92.98 -16.893,60.79,88.366 -39.719,38.146,57.07 -1.017,37.694,93.003 -24.426,53.42,57.002 -5.725,60.433,90.163
33000 1 45.443,92.98 -37.315,53.42,57.002 0.811,30.544,90.511 -3.665,60.402,91.034 -45.377,31.476,59.155 -20.47,60.737,87.559 -43.844,38.146,57.07 -0.125,35.405,92.162
34000 1 46.668,92.988 -6.15,60.402,91.034 -45.555,31.476,59.155 -5.102,30.544,90.511 -11.416,60.813,87.451 -5.922,35.405,92.162 -44.323,38.146,57.07
36000 1 46.668,92.988 -39.072,52.972,56.998 -0.902,30.544,90.511 -15.149,59.146,90.417 -42.758,32.495,58.359 -8.444,60.813,87.451 0.188,34.971,92.184
47000 1 46.668,92.988 -44.252,30.658,57.333 0.832,30.673,89.737 -13.039,60.817,85.87 -6.443,60.723,90.946 -45.128,38.146,57.07 -14.942,34.971,92.184 -37.486,53.099,56.993 1.016,53.443,60.414
266000 1 60.552,65.943 -13.929,55.15,56.9 -14.633,60.853,85.047 0.636,34.614,91.053 -13.453,32.99,57.049 0.866,33.325,91.78 1.042,56.499,60.467 -9.686,28.635,63.345 -27.469,58.757,90.704
322000 1 48.843,57.096 0.729,30.658,57.333 -25.195,60.817,87.913 0.753,60.319,60.079 0.86,32.186,90.989 0.719,54.47,56.932 0.763,39.933,57.131 -6.846,59.999,91.039 0.832,39.075,92.852
339000 1 40.957,92.918 0.605,60.562,61.233 -2.704,29.175,89.222 -1.851,39.933,57.131 -5.341,55.057,56.858 0.476,34.614,91.053 -20.486,28.617,63.914 -15.249,59.119,90.602 0.083,31.212,56.961 -14.292,60.782,87.566
345000 1 46.926,57.192 0.716,60.562,61.233 0.288,29.175,89.222 -2.978,40.232,57.161 -6.675,54.825,56.895 -16.693,59.052,90.743 0.472,36.992,92.108 -0.366,33.562,56.995 -15.66,60.786,84.921
352000 1 42.496,92.978 -10.035,36.992,92.108 -12.858,60.254,91.314 -20.142,60.795,85.029 -38.34,32.99,57.049 -28.992,60.58,60.88 -3.387,29.175,89.222 -38.189,38.938,57.096 -33.773,28.617,63.914
353000 1 42.496,92.978 -4.509,36.992,92.108 -10.023,60.254,91.314 -15.773,60.795,85.029 -40.045,32.99,57.049 -31.966,60.58,60.88 -3.686,29.175,89.222 -38.421,53.099,56.993 -42.274,38.938,57.096 -35.073,28.617,63.914
355000 1 41.791,92.922 -10.273,60.402,91.034 -1.45,34.645,91.575 -21.508,60.831,85.759 -32.945,60.316,59.661 -43.643,32.99,57.049 -19.79,29.175,89.222 -38.842,53.099,56.993 -44.134,35.872,57.071
356000 1 41.791,92.922 -33.447,28.617,63.914 -9.748,60.402,91.034 0.801,37.77,92.09 -34.291,60.831,85.759 -31.118,60.316,59.661 -10.881,29.175,89.222 -40.69,52.92,56.987 -44.246,36.444,57.017
362000 1 40.523,92.941 -46.084,39.933,57.131 -37.605,53.862,56.922 -31.079,28.617,63.914 -26.015,59.95,59.67 -13.906,60.875,85.469 0.626,37.77,92.09 -10.099,60.723,90.946 -46.69,30.978,57.305
364000 1 41.977,92.951 -44.367,30.978,57.305 0.903,30.642,89.456 -34.676,53.708,57.004 -38.444,28.617,63.914 -33.912,59.95,59.67 -13.02,60.723,81.216 -9.676,37.77,92.09 -5.141,60.723,90.946
366000 1 40.957,92.918 -44.415,30.978,57.305 -9.269,30.642,89.456 -32.222,53.708,57.004 -26.585,60.723,81.216 -29.467,59.95,59.67 0.789,38.127,92.981 -12.119,60.759,90.006
368000 1 40.957,92.918 -2.807,29.1,88.113 -43.118,28.636,64.188 -45.104,52.745,57.031 -18.051,60.706,77.628 -22.064,59.95,59.67 -1.047,38.127,92.981
369000 1 40.957,92.918 -5.431,60.759,90.006 -44.776,30.978,57.305 -37.632,28.636,64.188 -12.609,60.706,77.628 -20.29,59.95,59.67 0.391,38.127,92.981
126000 1 57.022,91.817 -45.618,34.059,58.84 -26.41,45.689,57.101 1.264,30.544,90.511 -45.775,40.229,57.083 -44.901,28.649,72.36 -11.709,41.539,92.92 -39.664,35.346,57.039 -14.173,60.684,77.748
128000 1 57.022,91.817 -5.796,60.773,83.354 -45.382,33.311,59.22 -21.7,45.689,57.101 -9.811,30.544,90.511 -38.004,39.474,57.105 -45.907,28.658,73.806 -45.767,41.539,92.92 -31.923,34.845,57.044
148000 1 57.022,91.817 -11.361,36.982,93.002 -45.087,28.658,73.806 0.534,60.764,78.742 -46.383,33.301,60.095 -37.628,58.79,58.209 -14.944,41.539,92.92 -42.341,35.846,57.017 -23.092,52.563,57.234 -5.319,60.563,73.032
151000 1 57.018,92.404 -3.604,60.634,74.183 -23.713,39.714,92.927 -46.184,28.658,73.806 0.875,60.652,76.861 -43.214,34.059,58.84 -40.303,58.79,58.209 -45.947,35.846,57.017 -19.771,40.73,92.907 -27.793,52.563,57.234
157000 1 57.112,92.077 -14.573,60.764,78.939 -44.697,28.711,77.676 -3.788,39.714,92.927 -45.808,33.293,60.688 -0.563,60.71,80.625 -37.979,50.028,57.905 -41.011,44.769,57.153 -17.874,39.714,92.927
159000 1 60.759,90.006 -17.136,39.714,92.927 -39.257,34.845,57.044 -5.458,60.67,75.136 -43.775,28.711,77.676 -6.033,39.714,92.927 -44.972,34.059,58.84 0.08,60.71,80.625 -33.52,52.554,57.82
160000 1 60.759,90.006 -37.797,44.769,57.153 -16.857,39.714,92.927 -44.733,34.845,57.044 -3.203,60.67,75.136 -44.282,28.671,76.36 -1.765,39.714,92.927 -45.695,34.266,58.049 -1.089,60.558,75.618 -32.079,52.554,57.82
162000 1 60.759,90.006 -39.934,43.318,57.214 -27.379,39.714,92.927 -43.751,34.845,57.044 -11.734,60.589,73.873 -45.583,28.666,77.345 -46.098,33.293,60.688 -0.68,60.558,75.618
168000 1 60.759,90.006 -11.697,42.722,92.99 -24.986,49.986,58.796 -0.585,60.513,73.972 -19.712,36.992,92.108 -39.183,39.474,57.105 -1.807,60.603,75.954 -45.016,31.19,62.583 -45.583,28.666,77.345
174000 1 60.808,88.61 -10.432,41.208,92.92 -30.398,52.554,57.82 -45.826,31.208,61.88 -44.192,34.845,57.044 -4.634,60.58,75.57 -3.943,60.52,70.401 -44.418,34.587,57.011 -22.478,34.614,91.053
175000 1 60.808,88.61 -44.279,28.675,77.819 -9.201,41.208,92.92 -33.436,52.554,57.82 -45.238,31.208,61.88 0.561,60.52,70.401 0.701,60.58,75.57 -21.765,35.919,92.055 -37.371,34.587,57.011
176000 1 60.808,88.61 -45.164,28.635,78.227 -7.236,41.208,92.92 -22.921,52.862,58.117 -46.262,33.293,60.688 -41.443,33.067,56.956 0.001,60.603,75.954 0.431,60.58,75.57 -28.986,35.919,92.055
180000 1 60.808,88.61 -45.52,33.067,56.956 -7.339,60.603,75.954 -21.545,37.055,92.928 0.377,60.549,73.367 -14.417,41.208,92.92 -45.573,28.675,79.543 -21.054,52.862,58.117 -45.701,33.293,60.688 -34.522,35.346,57.039
188000 1 60.808,88.61 -46.047,31.226,60.412 -12.52,60.565,70.736 -44.661,34.845,57.044 -21.471,30.845,89.239 -44.809,34.845,57.044 -3.651,60.554,74.025 -23.075,56.119,58.868 -43.434,28.72,80.452 -19.949,43.969,93.035
199000 1 60.858,85.539 -44.881,28.733,80.018 -32.117,52.82,59.007 -6.671,60.504,71.721 -8.602,43.625,93.03 -46.026,28.617,63.914 -8.183,60.494,68.154 -18.362,30.491,89.09 -44.371,37.931,57.108
200000 1 60.858,85.539 -34.731,34.587,57.011 -44.883,28.675,79.543 -27.903,52.82,59.007 0.665,60.504,71.721 -12.697,43.625,93.03 -11.416,60.494,68.154 -20.145,28.885,89.222
201000 1 60.858,85.539 -44.769,34.587,57.011 -45.497,28.675,79.543 -23.219,52.82,59.007 0.394,60.504,71.721 -8.366,43.625,93.03 -16.006,60.552,65.943 -46.035,31.208,61.88 -23.557,28.885,89.222
203000 1 60.858,85.539 -39.907,34.587,57.011 -33.967,36.842,57.052 -32.596,56.11,59.454 -43.526,28.706,80.822 0.428,60.504,71.721 -11.224,43.625,93.03 -4.691,60.552,65.943 -45.187,30.719,62.153
205000 1 60.858,85.539 -23.501,28.885,89.222 -28.107,56.11,59.454 -43.609,41.225,57.117 -37.611,36.686,57.071 -37.535,28.684,82.076 -2.683,60.504,71.721 -15.297,43.625,93.03 -16.78,60.507,68.351 -46.062,33.293,60.688
207000 1 60.858,85.539 -45.085,33.293,60.688 -21.846,28.885,89.222 -43.711,56.575,59.476 -37.44,36.686,57.071 -44.399,41.225,57.117 -44.579,28.729,82.904 -14.773,43.625,93.03 -3.117,60.504,71.721
211000 1 60.858,85.539 -8.453,60.553,64.954 -45.009,33.293,60.688 -27.658,56.575,59.476 -37.264,40.267,57.174 -44.879,28.729,82.663 -36.834,36.686,57.071 -25.823,45.194,93.044
212000 1 60.858,85.539 0.378,60.536,71.094 -14.153,60.553,64.954 -20.485,59.95,59.67 -35.129,28.885,89.222 -39.641,28.711,82.407 -32.993,37.888,57.078 -20.814,45.194,93.044
213000 1 60.858,85.539 -0.81,60.509,73.689 -7.065,60.553,64.954 -44.533,33.298,62.214 -36.615,59.95,59.67 -27.0,28.885,89.222 -41.311,28.711,82.407 -32.689,37.888,57.078 -37.056,34.587,57.011 -21.696,45.194,93.044
215000 1 60.804,83.951 -13.633,45.194,93.044 0.661,60.509,73.689 -11.145,60.576,68.356 -45.871,33.298,62.214 -24.71,59.95,59.67 -29.863,28.885,89.222 -43.297,28.72,82.654 -45.148,37.888,57.078 -40.359,34.587,57.011
216000 1 60.804,83.951 -0.696,60.509,73.689 -7.781,60.576,68.356 -44.741,33.293,60.688 -25.994,28.885,89.222 -42.175,28.756,85.545 -44.077,36.341,57.056 -38.198,34.587,57.011
217000 1 60.804,83.951 -2.77,60.585,75.931 -19.663,45.194,93.044 -6.945,60.576,68.356 -44.667,33.293,60.688 -23.698,53.229,58.108 -27.231,28.885,89.222 -43.411,28.778,84.95 -29.345,36.341,57.056 -33.202,34.587,57.011
219000 1 60.804,83.951 -17.633,46.668,92.988 0.95,60.71,79.029 -8.868,60.576,68.356 -45.43,33.293,60.688 -27.827,29.564,89.177 -37.43,28.778,84.95
221000 1 60.804,83.951 -41.495,33.067,56.956 -16.704,46.668,92.988 -2.84,60.563,67.554 -10.169,53.443,60.414 -45.206,28.738,85.845 -25.89,29.564,89.177 -44.383,28.648,64.684 -25.577,47.355,57.222
223000 1 60.804,83.951 -34.122,33.067,56.956 -15.886,46.668,92.988 -3.914,60.622,62.05 -6.932,60.701,79.937 -11.162,53.443,60.414 -43.181,28.778,84.95 -20.155,29.564,89.177 -45.726,28.635,65.073
225000 1 60.804,83.951 -24.894,48.888,57.195 -35.437,31.212,56.961 -29.079,46.668,92.988 0.864,60.701,79.937 -1.543,60.285,62.192 -7.942,53.475,58.691 -44.219,28.662,65.52
227000 1 60.804,83.951 -22.412,29.984,90.596 -29.98,48.888,57.195 -36.082,31.212,56.961 -19.18,46.668,92.988 -5.386,60.285,62.192 -0.219,60.639,77.413 -10.581,53.475,58.691 -45.015,28.786,83.516
235000 1 60.804,83.951 -17.141,56.749,60.077 1.011,60.728,80.854 -45.426,28.653,80.264 -42.733,33.293,60.688 -38.83,37.443,92.883 -22.648,48.888,57.195 -45.475,31.212,56.961
236000 1 60.804,83.951 -1.393,60.566,62.321 -25.003,46.668,92.988 1.063,60.692,79.766 -45.071,28.653,80.264 -45.477,33.293,60.688 -28.899,37.443,92.883 -29.801,50.672,57.153 -32.616,32.495,57.01 -0.904,60.593,62.488
238000 1 60.804,83.951 -1.097,60.285,62.192 -23.175,45.769,92.983 1.229,60.262,60.35 0.917,60.773,82.027 -41.986,28.653,80.264 -30.43,37.443,92.883 -45.102,33.293,64.255 -31.66,32.495,57.01
240000 1 60.804,83.951 -2.992,60.285,62.192 -3.35,60.262,60.35 0.8,60.773,82.027 -24.372,45.769,92.983 -45.13,28.711,80.246 -46.11,33.293,64.255 -25.719,36.693,92.977 -22.837,51.561,57.077 -32.289,33.008,57.367
255000 1 28.614,67.743 -34.139,39.714,92.927 1.14,28.614,68.66 -11.142,60.804,83.951 -17.072,54.309,56.926 -10.473,60.562,60.244 0.174,60.594,61.499 0.871,28.711,77.676 -16.356,34.587,57.011 -20.459,41.666,93.028
331000 1 60.559,63.325 1.038,28.782,87.343 0.291,28.671,77.587 -2.164,28.617,63.914 -13.615,45.105,92.941 0.369,53.229,58.108 -8.13,60.759,90.006 -1.963,58.083,58.347 -16.863,33.304,56.962
356000 1 60.314,61.753 -7.328,60.549,72.057 0.803,28.782,87.343 1.238,52.511,58.711 0.663,57.538,57.061 -18.833,50.446,92.93 0.759,28.711,74.145 -5.617,50.649,57.011 -11.989,60.723,90.946 -25.191,28.634,62.445
364000 1 28.742,81.526 -39.661,46.101,57.09 -28.905,60.759,89.738 -18.443,28.652,61.877 0.721,30.425,87.82 -41.22,60.598,76.642 -37.948,49.729,57.022 -45.538,58.383,59.23 -4.857,28.68,73.358
368000 1 28.729,82.663 -28.908,53.623,92.831 -19.887,28.652,61.877 -44.843,36.447,57.401 -37.873,60.759,90.006 -40.58,49.729,57.022 -4.028,30.911,90.508 -42.344,60.549,72.057
369000 1 28.729,82.663 0.156,28.649,74.602 -29.723,57.018,92.404 -21.82,28.652,61.877 -37.689,60.759,90.006 -38.101,36.447,57.401 -41.552,49.729,57.022 -2.137,30.911,90.508 -41.107,60.549,72.057
379000 1 28.755,83.906 -44.799,60.563,73.032 -36.967,45.689,57.101 -1.967,33.975,90.977 -28.931,32.495,57.01 -44.79,55.516,56.891 1.436,28.658,72.588 -16.344,57.022,91.817 -28.552,60.84,87.505
443000 1 30.882,90.82 0.841,41.395,92.95 -25.148,60.706,80.758 -3.382,57.018,92.404 -20.497,28.626,62.195 -35.216,30.658,57.333 -42.274,53.461,58.071 -28.024,60.804,83.951 -15.381,28.648,64.684
452000 1 32.095,91.94 -45.893,51.561,57.077 -37.155,30.658,57.333 -17.785,60.79,81.628 -21.46,31.208,61.88 -17.796,60.804,83.951 1.513,38.471,92.923 -34.21,28.626,60.409 -4.541,53.623,92.831
456000 1 32.327,92.755 -44.154,59.914,60.006 -45.75,48.37,57.125 -37.589,30.658,57.333 -25.63,60.692,79.766 -22.991,28.635,63.345 1.459,36.094,91.867 -38.044,28.652,61.877
459000 1 33.379,92.743 -28.372,29.384,59.154 0.047,45.899,92.912 -43.54,60.58,60.88 -45.929,48.37,57.125 -28.151,60.661,80.423 -29.578,30.658,57.333 -36.72,28.635,63.345 -19.791,60.79,83.387 1.543,34.18,91.311
463000 1 32.646,92.774 -26.542,29.411,60.622 -44.671,53.425,58.407 -45.747,46.21,57.201 -28.448,60.656,80.092 -41.082,32.732,57.016 -30.842,28.621,64.501 -17.991,60.808,84.246 1.433,35.405,92.162
465000 1 34.268,92.912 -29.578,28.652,61.877 -43.426,53.229,58.108 1.029,45.105,92.941 -45.068,50.426,57.111 -33.811,60.684,77.439 -25.161,60.723,81.689 -45.461,31.212,56.961
474000 1 33.538,92.964 -24.571,60.799,87.57 -45.485,45.654,57.086 1.591,30.544,90.511 -41.201,60.598,77.425 -19.699,28.643,63.595 -33.39,33.301,60.095 -34.037,49.113,57.854 -45.831,30.71,59.217 0.983,45.105,92.941
480000 1 32.609,92.996 -34.153,35.333,57.019 -45.465,31.492,58.414 1.016,45.105,92.941 -45.4,51.543,57.002 -15.155,60.808,88.103 1.29,30.544,90.511 -33.847,60.71,79.306 -38.33,28.643,63.595 -40.939,60.316,59.661
481000 1 35.466,92.903 -45.449,31.492,58.414 -43.704,34.014,58.075 1.081,45.105,92.941 -14.252,60.808,88.103 -45.677,51.543,57.002 1.313,30.544,90.511 -23.419,28.643,63.595 -30.018,60.71,79.306 -41.211,60.316,59.661
88000 1 59.146,90.417 -4.039,58.292,91.776 -36.301,39.433,57.135 -0.454,51.409,57.056 0.567,59.95,59.67 1.031,60.822,85.918 -7.801,31.992,91.045
134000 1 60.67,78.218 -0.696,32.495,57.01 -17.623,50.247,57.105 -0.868,60.835,86.675 -0.538,56.186,59.787 0.607,37.334,57.076 -22.398,37.77,92.09 -9.855,29.305,90.247 -10.582,59.494,92.347
259000 1 60.773,83.145 -25.935,38.297,92.87 -34.838,39.714,92.927 1.889,28.614,68.66 -25.436,52.745,57.031 -1.113,60.562,60.244 2.327,60.786,83.02 -12.012,60.575,61.853 1.562,28.658,73.806 -23.298,34.845,57.044
318000 1 28.675,77.819 -0.224,28.671,79.337 0.7,60.557,69.018 -1.854,32.033,90.432 -6.158,28.654,66.135 -16.182,32.498,57.36 -9.164,60.759,90.006
339000 1 28.689,78.397 -14.117,59.119,90.602 0.877,60.536,72.391 0.19,28.636,64.188 0.797,28.782,87.343 -8.36,58.083,58.347 -1.218,52.82,59.007 0.34,28.666,76.128 -18.586,46.668,92.988 -25.882,34.845,57.044
281000 1 28.649,72.36 -23.41,39.075,92.852 -23.255,44.84,57.101 -5.668,52.862,58.117 -29.149,60.604,62.403 -19.572,41.539,92.92 0.327,60.804,83.951 0.355,28.671,75.918 0.865,28.658,73.806
370000 1 40.957,92.918 -7.615,60.759,90.006 0.859,29.1,88.113 -45.724,28.636,64.188 -28.943,52.745,57.031 -13.717,60.804,83.951 -20.108,59.95,59.67 -45.748,37.77,92.09
110000 1 60.88,85.961 0.364,55.504,56.863 -30.355,36.693,92.977 0.039,43.447,56.987 -4.444,60.276,91.715 1.053,60.782,85.14 -24.646,30.818,89.699 1.012,32.495,57.01
242000 1 60.804,83.951 -28.737,33.008,57.367 -1.965,60.53,64.838 -1.955,60.262,60.35 -22.76,45.769,92.983 -13.272,28.685,79.382 0.921,60.773,81.83 -44.205,33.293,64.255 -19.861,51.561,57.077
312000 1 60.571,65.59 1.156,28.697,78.948 0.813,60.552,65.943 -15.808,34.5,92.218 -15.753,31.212,56.961 -9.594,60.835,88.157 1.167,28.69,67.133 -25.172,45.105,92.941 -10.598,58.146,57.072 -1.219,52.862,58.117
323000 1 28.706,78.606 -21.702,31.212,56.961 -11.113,55.878,59.49 -18.584,45.105,92.941 -3.09,59.648,58.818 1.508,28.68,78.242 -0.983,60.63,68.575